
CIRCUIT ELEMENT CURRENTS

(Currents into element from indicated bus)

Power Delivery Elements

  Bus     Phase    Magnitude, A     Angle      (Real)   +j  (Imag)

ELEMENT = "Vsource.SOURCE"
SOURCEBUS     1           6.8214 /_  143.1 =    -5.4558 +j    4.0947
SOURCEBUS     2           5.2993 /_   28.7 =     4.6504 +j     2.541
SOURCEBUS     3           6.6843 /_  -83.1 =    0.80538 +j   -6.6356
------------
SOURCEBUS     0           6.8214 /_  -36.9 =     5.4558 +j   -4.0947
SOURCEBUS     0           5.2993 /_ -151.3 =    -4.6504 +j    -2.541
SOURCEBUS     0           6.6843 /_   96.9 =   -0.80538 +j    6.6356

ELEMENT = "Transformer.SUBXF"
SOURCEBUS     1           6.8214 /_  -36.9 =     5.4558 +j   -4.0947
SOURCEBUS     2           5.2993 /_ -151.3 =    -4.6504 +j    -2.541
SOURCEBUS     3           6.6843 /_   96.9 =   -0.80538 +j    6.6356
SOURCEBUS     0                0 /_    0.0 =          0 +j         0
SOURCEBUS Resid       2.3832E-14 /_   63.4 =   1.0658E-14 +j 2.1316E-14
------------
799           1           326.86 /_  143.1 =    -261.42 +j     196.2
799           2           253.93 /_   28.7 =     222.83 +j    121.75
799           3           320.29 /_  -83.1 =     38.592 +j   -317.96
799           0                0 /_    0.0 =          0 +j         0
799       Resid        1.1042E-6 /_ -169.7 =   -1.0862E-6 +j -1.9837E-7

ELEMENT = "Transformer.XFM1"
709           1      0.000035484 /_  -94.1 =  -2.558E-6 +j -0.000035391
709           2       0.00003712 /_  146.6 =  -0.000030998 +j 0.00002042
709           3      0.000036741 /_   24.0 =  0.000033553 +j 0.000014971
709           0                0 /_    0.0 =          0 +j         0
709       Resid         3.941E-9 /_    7.6 =   3.9064E-9 +j 5.2114E-10
------------
775           1       3.2792E-12 /_  -56.3 =  1.819E-12 +j -2.7285E-12
775           2       2.0337E-12 /_   26.6 =  1.819E-12 +j 9.0949E-13
775           3       4.0674E-12 /_  153.4 =  -3.638E-12 +j 1.819E-12
775           0                0 /_    0.0 =          0 +j         0
775       Resid                0 /_    0.0 =           0 +j         0

ELEMENT = "Line.L1"
701           1           235.97 /_  -33.8 =     196.15 +j   -131.18
701           2           200.94 /_ -151.8 =    -177.05 +j   -95.029
701           3           227.02 /_   94.8 =    -19.099 +j    226.21
701       Resid       0.00012812 /_  160.1 =   -0.00012047 +j 0.000043618
------------
702           1              236 /_  146.2 =    -196.14 +j    131.24
702           2           200.97 /_   28.2 =      177.1 +j    94.996
702           3           227.04 /_  -85.2 =     19.045 +j   -226.24
702       Resid      0.000097131 /_  -12.6 =   0.000094778 +j -0.00002125

ELEMENT = "Line.L2"
702           1           18.527 /_  -55.8 =     10.412 +j   -15.324
702           2            19.27 /_ -124.2 =    -10.824 +j   -15.943
702           3            31.27 /_   89.2 =    0.41286 +j    31.267
702       Resid      0.000013172 /_  142.2 =   -0.000010413 +j 8.0667E-6
------------
705           1           18.535 /_  124.2 =    -10.411 +j    15.336
705           2            19.27 /_   55.8 =     10.834 +j    15.936
705           3           31.275 /_  -90.8 =   -0.42351 +j   -31.272
705       Resid         7.577E-6 /_  -38.4 =   5.9411E-6 +j -4.7026E-6

ELEMENT = "Line.L3"
702           1           52.958 /_  -39.4 =     40.906 +j   -33.635
702           2            66.99 /_ -136.6 =    -48.657 +j   -46.045
702           3           80.056 /_   84.4 =     7.7516 +j     79.68
702       Resid      0.000042815 /_  118.9 =   -0.000020714 +j 0.000037471
------------
713           1           52.965 /_  140.6 =    -40.905 +j    33.647
713           2           66.993 /_   43.4 =     48.668 +j    46.038
713           3           80.062 /_  -95.6 =    -7.7635 +j   -79.685
713       Resid      0.000037453 /_  -64.7 =   0.00001601 +j -0.000033859

ELEMENT = "Line.L4"
702           1           166.57 /_  -29.6 =     144.82 +j   -82.283
702           2           122.16 /_ -164.3 =    -117.61 +j   -33.008
702           3           118.46 /_  103.3 =    -27.209 +j    115.29
702       Resid      0.000068128 /_ -159.1 =   -0.000063651 +j -0.000024288
------------
703           1            166.6 /_  150.4 =    -144.82 +j    82.362
703           2           122.21 /_   15.6 =     117.68 +j    32.962
703           3           118.47 /_  -76.8 =     27.135 +j   -115.32
703       Resid      0.000052591 /_   52.1 =   0.00003233 +j 0.000041479

ELEMENT = "Line.L5"
703           1           38.019 /_  -23.7 =     34.805 +j     -15.3
703           2            32.33 /_ -165.7 =    -31.321 +j   -8.0115
703           3            23.57 /_   98.5 =    -3.4835 +j    23.311
703       Resid       0.00001103 /_  163.3 =   -0.000010564 +j 3.1719E-6
------------
727           1           38.022 /_  156.3 =    -34.804 +j    15.307
727           2           32.334 /_   14.3 =     31.327 +j    8.0076
727           3           23.572 /_  -81.5 =     3.4771 +j   -23.314
727       Resid        8.3677E-6 /_  -16.0 =   8.0425E-6 +j -2.3103E-6

ELEMENT = "Line.L6"
703           1           128.84 /_  -31.4 =     110.01 +j   -67.062
703           2           89.894 /_ -163.9 =    -86.362 +j   -24.951
703           3           95.004 /_  104.4 =    -23.651 +j    92.013
703       Resid      0.000049674 /_ -116.0 =   -0.000021766 +j -0.000044651
------------
730           1           128.85 /_  148.6 =    -110.01 +j    67.083
730           2           89.908 /_   16.1 =      86.38 +j    24.939
730           3           95.008 /_  -75.6 =     23.632 +j   -92.022
730       Resid      0.000048596 /_   72.0 =   0.000015014 +j 0.000046218

ELEMENT = "Line.L7"
704           1           21.374 /_    1.8 =     21.363 +j   0.66612
704           2           24.066 /_ -169.0 =    -23.626 +j   -4.5791
704           3           4.5201 /_   60.0 =     2.2627 +j     3.913
704       Resid         5.246E-6 /_  134.0 =   -3.6455E-6 +j 3.7724E-6
------------
714           1           21.374 /_ -178.2 =    -21.363 +j  -0.66386
714           2           24.067 /_   11.0 =     23.628 +j    4.5778
714           3            4.522 /_ -120.1 =    -2.2648 +j   -3.9139
714       Resid        4.5077E-6 /_  -45.9 =   3.1363E-6 +j -3.2378E-6

ELEMENT = "Line.L8"
704           1           21.841 /_  -60.3 =     10.837 +j   -18.963
704           2           48.434 /_ -121.2 =    -25.058 +j   -41.448
704           3           62.062 /_   76.8 =     14.221 +j    60.411
704       Resid      0.000026414 /_  105.9 =   -7.2285E-6 +j 0.000025406
------------
720           1           21.865 /_  119.7 =    -10.835 +j    18.991
720           2           48.433 /_   58.8 =     25.083 +j    41.432
720           3            62.08 /_ -103.3 =    -14.247 +j   -60.423
720       Resid      0.000018952 /_  -82.1 =   2.5966E-6 +j -0.000018773

ELEMENT = "Line.L9"
705           1           1.7023 /_    0.7 =     1.7021 +j  0.020775
705           2            19.27 /_ -124.2 =     -10.84 +j   -15.932
705           3           18.349 /_   60.1 =     9.1381 +j    15.912
705       Resid        4.2955E-6 /_  141.3 =   -3.352E-6 +j 2.6862E-6
------------
742           1           1.7016 /_ -179.6 =    -1.7015 +j -0.011713
742           2           19.271 /_   55.7 =     10.848 +j    15.927
742           3           18.356 /_ -119.9 =    -9.1466 +j   -15.915
742       Resid        7.276E-12 /_    0.0 =   7.276E-12 +j         0

ELEMENT = "Line.L10"
705           1           17.654 /_  -60.4 =     8.7087 +j   -15.356
705           2        0.0070879 /_  -33.4 =  0.0059157 +j -0.0039042
705           3            17.66 /_  119.6 =    -8.7146 +j     15.36
705       Resid        3.2816E-6 /_  142.1 =   -2.5891E-6 +j 2.0164E-6
------------
712           1            17.66 /_  119.5 =    -8.7082 +j    15.363
712           2       1.0312E-11 /_   76.0 =  2.5011E-12 +j 1.0004E-11
712           3            17.66 /_  -60.5 =     8.7082 +j   -15.363
712       Resid       1.7614E-11 /_ -101.2 =   -3.4106E-12 +j -1.728E-11

ELEMENT = "Line.L11"
706           1        0.0079209 /_   86.1 =  0.00054212 +j 0.0079023
706           2           9.1179 /_ -121.3 =    -4.7324 +j   -7.7937
706           3           9.1109 /_   58.7 =     4.7318 +j    7.7858
706       Resid         1.947E-6 /_  109.0 =   -6.3236E-7 +j 1.8414E-6
------------
725           1       5.8986E-12 /_  -27.6 =  5.2296E-12 +j -2.7285E-12
725           2           9.1176 /_   58.7 =     4.7392 +j    7.7892
725           3           9.1176 /_ -121.3 =    -4.7392 +j   -7.7892
725       Resid       2.0464E-12 /_  180.0 =   -2.0464E-12 +j         0

ELEMENT = "Line.L12"
707           1         0.021488 /_   86.1 =  0.0014612 +j  0.021439
707           2           9.0699 /_ -121.1 =    -4.6899 +j   -7.7633
707           3           9.0508 /_   58.8 =     4.6884 +j    7.7419
707       Resid        5.1739E-6 /_   80.5 =   8.5711E-7 +j 5.1024E-6
------------
724           1       4.6874E-13 /_  -76.0 =  1.1369E-13 +j -4.5475E-13
724           2            9.069 /_   58.7 =     4.7084 +j     7.751
724           3            9.069 /_ -121.3 =    -4.7084 +j    -7.751
724       Resid       3.1837E-12 /_   91.0 =   -5.6843E-14 +j 3.1832E-12

ELEMENT = "Line.L13"
707           1           4.3432 /_  -60.5 =      2.141 +j   -3.7789
707           2           30.243 /_ -121.3 =    -15.701 +j   -25.848
707           3           32.583 /_   65.4 =      13.56 +j    29.627
707       Resid        8.1325E-7 /_   81.8 =   1.1548E-7 +j 8.0501E-7
------------
722           1            4.346 /_  119.5 =    -2.1407 +j    3.7822
722           2           30.243 /_   58.7 =     15.704 +j    25.846
722           3           32.585 /_ -114.6 =    -13.563 +j   -29.628
722       Resid        1.237E-11 /_  162.9 =   -1.1823E-11 +j 3.638E-12

ELEMENT = "Line.L14"
708           1           106.97 /_  -24.4 =     97.427 +j   -44.155
708           2            77.83 /_ -173.3 =    -77.294 +j   -9.1185
708           3           56.951 /_  110.7 =    -20.133 +j    53.273
708       Resid      0.000044312 /_  -97.0 =   -5.3873E-6 +j -0.000043983
------------
733           1           106.97 /_  155.6 =    -97.426 +j    44.166
733           2           77.838 /_    6.7 =     77.303 +j    9.1121
733           3           56.951 /_  -69.3 =     20.123 +j   -53.278
733       Resid       0.00004271 /_   85.0 =   3.7247E-6 +j 0.000042547

ELEMENT = "Line.L15"
708           1           8.7002 /_  -62.2 =     4.0535 +j   -7.6982
708           2        0.0093539 /_  -33.3 =  0.0078149 +j -0.0051404
708           3           8.7084 /_  117.8 =    -4.0614 +j    7.7033
708       Resid        1.7714E-6 /_ -151.0 =   -1.5496E-6 +j -8.5828E-7
------------
732           1           8.7078 /_  117.7 =    -4.0529 +j    7.7071
732           2       9.0949E-13 /_   90.0 =          0 +j 9.0949E-13
732           3           8.7078 /_  -62.3 =     4.0529 +j   -7.7071
732       Resid       6.9563E-12 /_ -101.3 =   -1.3642E-12 +j -6.8212E-12

ELEMENT = "Line.L16"
709           1         0.020858 /_   85.9 =   0.001504 +j  0.020804
709           2           18.242 /_ -120.0 =    -9.1104 +j   -15.805
709           3           18.224 /_   60.0 =     9.1089 +j    15.784
709       Resid        4.2648E-6 /_ -171.6 =   -4.2192E-6 +j -6.218E-7
------------
731           1       2.4489E-12 /_  -21.8 =  2.2737E-12 +j -9.0949E-13
731           2           18.241 /_   60.0 =     9.1286 +j    15.793
731           3           18.241 /_ -120.0 =    -9.1286 +j   -15.793
731       Resid       1.6396E-12 /_ -146.3 =   -1.3642E-12 +j -9.0949E-13

ELEMENT = "Line.L17"
709           1           113.96 /_  -27.1 =     101.48 +j   -51.842
709           2           77.814 /_ -173.3 =    -77.276 +j     -9.13
709           3           65.601 /_  111.7 =    -24.205 +j    60.972
709       Resid      0.000046443 /_ -101.3 =   -9.124E-6 +j -0.000045538
------------
708           1           113.96 /_  152.9 =    -101.48 +j    51.853
708           2           77.822 /_    6.7 =     77.286 +j    9.1236
708           3           65.601 /_  -68.4 =     24.195 +j   -60.976
708       Resid      0.000045375 /_   81.2 =   6.9369E-6 +j 0.000044841

ELEMENT = "Line.L18"
710           1           17.301 /_  -61.0 =     8.3886 +j   -15.131
710           2        0.0058214 /_  -33.3 =  0.0048677 +j -0.0031928
710           3           17.306 /_  119.0 =    -8.3935 +j    15.134
710       Resid        1.4217E-6 /_  -99.7 =   -2.3849E-7 +j -1.4016E-6
------------
735           1           17.305 /_  119.0 =    -8.3882 +j    15.136
735           2       3.6451E-12 /_  -86.4 =  2.2737E-13 +j -3.638E-12
735           3           17.305 /_  -61.0 =     8.3882 +j   -15.136
735       Resid       1.5356E-11 /_  117.3 =   -7.0486E-12 +j 1.3642E-11

ELEMENT = "Line.L19"
710           1         0.035463 /_   85.8 =  0.0025666 +j   0.03537
710           2           9.0718 /_ -121.2 =    -4.6949 +j   -7.7625
710           3           9.0402 /_   58.7 =     4.6923 +j    7.7271
710       Resid        8.9819E-6 /_  -94.9 =   -7.7302E-7 +j -8.9486E-6
------------
736           1       2.1307E-12 /_  170.8 =  -2.1032E-12 +j 3.4106E-13
736           2           9.0705 /_   58.6 =      4.726 +j     7.742
736           3           9.0705 /_ -121.4 =     -4.726 +j    -7.742
736       Resid       2.0654E-12 /_   55.7 =   1.1653E-12 +j 1.7053E-12

ELEMENT = "Line.L20"
711           1           8.6189 /_  -62.5 =     3.9824 +j   -7.6437
711           2         0.014431 /_  -33.2 =    0.01208 +j -0.0078947
711           3           8.6315 /_  117.6 =    -3.9945 +j    7.6516
711       Resid        5.3023E-6 /_  -87.9 =   1.9183E-7 +j -5.2989E-6
------------
741           1           8.6306 /_  117.5 =    -3.9814 +j    7.6574
741           2       5.4759E-12 /_  138.4 =  -4.0927E-12 +j 3.638E-12
741           3           8.6306 /_  -62.5 =     3.9814 +j   -7.6574
741       Resid       9.3223E-12 /_    0.0 =   9.3223E-12 +j         0

ELEMENT = "Line.L21"
711           1           17.258 /_  -61.1 =     8.3272 +j   -15.116
711           2        0.0058087 /_  -33.2 =  0.0048624 +j -0.0031777
711           3           17.263 /_  118.9 =    -8.3321 +j    15.119
711       Resid        2.1343E-6 /_  -87.9 =   7.7219E-8 +j -2.1329E-6
------------
740           1           17.262 /_  118.8 =    -8.3268 +j    15.121
740           2        1.013E-11 /_  -45.9 =  7.0486E-12 +j -7.276E-12
740           3           17.262 /_  -61.2 =     8.3268 +j   -15.121
740       Resid        1.037E-11 /_ -164.7 =   -1.0004E-11 +j -2.7285E-12

ELEMENT = "Line.L22"
713           1           37.028 /_  -29.6 =     32.202 +j   -18.279
713           2           66.993 /_ -136.6 =    -48.668 +j   -46.038
713           3           66.391 /_   75.6 =     16.466 +j    64.316
713       Resid      0.000037453 /_  115.3 =   -0.00001601 +j 0.000033859
------------
704           1           37.036 /_  150.4 =    -32.201 +j    18.297
704           2           66.998 /_   43.4 =     48.684 +j    46.027
704           3           66.403 /_ -104.4 =    -16.483 +j   -64.324
704       Resid      0.000031139 /_  -69.6 =   0.000010874 +j -0.000029178

ELEMENT = "Line.L23"
714           1           17.808 /_    1.8 =     17.799 +j    0.5561
714           2           17.794 /_ -178.2 =    -17.785 +j  -0.54985
714           3         0.015141 /_ -155.6 =  -0.013789 +j -0.0062545
714       Resid        4.5076E-6 /_  134.1 =   -3.1362E-6 +j 3.2377E-6
------------
718           1           17.806 /_ -178.3 =    -17.798 +j  -0.54142
718           2           17.806 /_    1.7 =     17.798 +j   0.54142
718           3                0 /_    0.0 =          0 +j         0
718       Resid        2.595E-12 /_ -118.8 =   -1.2506E-12 +j -2.2737E-12

ELEMENT = "Line.L24"
720           1           4.3037 /_  -60.1 =     2.1442 +j   -3.7315
720           2           39.314 /_ -121.2 =    -20.368 +j   -33.626
720           3           41.566 /_   64.0 =     18.224 +j    37.358
720       Resid      0.000012025 /_   90.0 =   2.0069E-9 +j 0.000012025
------------
707           1           4.3253 /_  119.7 =    -2.1424 +j    3.7574
707           2           39.313 /_   58.8 =     20.391 +j    33.611
707           3           41.586 /_ -116.0 =    -18.249 +j   -37.369
707       Resid         5.987E-6 /_  -99.3 =   -9.7261E-7 +j -5.9074E-6

ELEMENT = "Line.L25"
720           1         0.029005 /_   86.1 =  0.0019855 +j  0.028937
720           2           9.1188 /_ -121.1 =    -4.7141 +j   -7.8058
720           3            9.093 /_   58.8 =     4.7121 +j    7.7769
720       Resid        7.2316E-6 /_  111.1 =   -2.5986E-6 +j 6.7486E-6
------------
706           1        0.0079209 /_  -93.9 =  -0.00054212 +j -0.0079023
706           2           9.1179 /_   58.7 =     4.7324 +j    7.7937
706           3           9.1109 /_ -121.3 =    -4.7318 +j   -7.7858
706       Resid         1.947E-6 /_  -71.0 =   6.3236E-7 +j -1.8414E-6

ELEMENT = "Line.L26"
727           1            31.61 /_  -13.8 =     30.696 +j   -7.5485
727           2           32.334 /_ -165.7 =    -31.327 +j   -8.0076
727           3           15.569 /_   87.7 =    0.63168 +j    15.556
727       Resid        8.3677E-6 /_  164.0 =   -8.0425E-6 +j 2.3102E-6
------------
744           1           31.612 /_  166.2 =    -30.695 +j    7.5583
744           2           32.341 /_   14.3 =     31.336 +j     8.002
744           3           15.574 /_  -92.4 =   -0.64091 +j    -15.56
744       Resid        4.7562E-6 /_  -15.4 =   4.5863E-6 +j -1.2599E-6

ELEMENT = "Line.L27"
730           1           113.95 /_  -27.0 =     101.48 +j   -51.814
730           2           89.908 /_ -163.9 =     -86.38 +j   -24.939
730           3           78.225 /_  101.1 =    -15.103 +j    76.753
730       Resid      0.000048596 /_ -108.0 =   -0.000015014 +j -0.000046218
------------
709           1           113.95 /_  152.9 =    -101.48 +j    51.821
709           2           89.913 /_   16.1 =     86.387 +j    24.935
709           3           78.226 /_  -78.9 =     15.096 +j   -76.756
709       Resid      0.000048048 /_   73.9 =   0.000013339 +j 0.000046159

ELEMENT = "Line.L28"
733           1            91.54 /_  -29.3 =     79.865 +j   -44.735
733           2            60.35 /_ -171.9 =    -59.742 +j   -8.5432
733           3           56.951 /_  110.7 =    -20.123 +j    53.278
733       Resid       0.00004271 /_  -95.0 =   -3.7247E-6 +j -0.000042547
------------
734           1           91.548 /_  150.7 =    -79.864 +j    44.754
734           2           60.365 /_    8.1 =     59.759 +j    8.5321
734           3           56.952 /_  -69.3 =     20.104 +j   -53.286
734       Resid      0.000038572 /_   87.1 =   1.9183E-6 +j 0.000038524

ELEMENT = "Line.L29"
734           1            70.95 /_  -18.1 =     67.456 +j   -21.991
734           2           55.087 /_ -179.2 =    -55.082 +j  -0.75816
734           3           25.897 /_  118.5 =    -12.374 +j     22.75
734       Resid      0.000024527 /_  -90.4 =   -1.624E-7 +j -0.000024526
------------
737           1           70.955 /_  161.9 =    -67.454 +j    22.013
737           2           55.106 /_    0.8 =     55.101 +j   0.74549
737           3           25.895 /_  -61.5 =     12.353 +j   -22.759
737       Resid      0.000017832 /_   91.7 =   -5.356E-7 +j 0.000017824

ELEMENT = "Line.L30"
734           1           17.259 /_  -60.9 =     8.3922 +j   -15.081
734           2           9.0726 /_ -121.0 =    -4.6774 +j    -7.774
734           3           23.155 /_   99.2 =    -3.7148 +j    22.855
734       Resid      0.000014108 /_  -97.1 =   -1.756E-6 +j -0.000013998
------------
710           1           17.271 /_  119.1 =    -8.3912 +j    15.095
710           2            9.072 /_   58.9 =       4.69 +j    7.7657
710           3           23.159 /_  -80.8 =     3.7011 +j   -22.861
710       Resid      0.000010399 /_   84.4 =   1.0115E-6 +j 0.00001035

ELEMENT = "Line.L31"
737           1           44.381 /_  -30.2 =     38.372 +j     -22.3
737           2           26.023 /_ -179.0 =    -26.019 +j  -0.45874
737           3           25.895 /_  118.5 =    -12.353 +j    22.759
737       Resid      0.000017832 /_  -88.3 =    5.356E-7 +j -0.000017824
------------
738           1           44.387 /_  149.8 =    -38.371 +j    22.314
738           2           26.035 /_    1.0 =     26.031 +j   0.45084
738           3           25.894 /_  -61.5 =      12.34 +j   -22.765
738       Resid      0.000012739 /_   92.1 =   -4.6088E-7 +j 0.000012731

ELEMENT = "Line.L32"
738           1           25.863 /_  -61.6 =     12.311 +j   -22.746
738           2         0.034671 /_  -33.2 =   0.029023 +j -0.018967
738           3           25.894 /_  118.5 =     -12.34 +j    22.765
738       Resid      0.000012739 /_  -87.9 =   4.6088E-7 +j -0.000012731
------------
711           1           25.875 /_  118.4 =     -12.31 +j    22.759
711           2          0.02024 /_  146.8 =  -0.016943 +j  0.011072
711           3           25.893 /_  -61.6 =     12.327 +j    -22.77
711       Resid        7.4366E-6 /_   92.1 =   -2.6906E-7 +j 7.4317E-6

ELEMENT = "Line.L33"
744           1           15.074 /_  -30.7 =     12.967 +j   -7.6866
744           2           15.729 /_ -149.9 =    -13.615 +j   -7.8771
744           3           15.577 /_   87.6 =    0.64834 +j    15.564
744       Resid        1.9745E-6 /_  164.5 =   -1.9024E-6 +j 5.2874E-7
------------
728           1           15.076 /_  149.3 =    -12.966 +j    7.6922
728           2           15.732 /_   30.0 =      13.62 +j    7.8739
728           3            15.58 /_  -92.4 =   -0.65364 +j   -15.566
728       Resid       8.4618E-12 /_  120.7 =   -4.3201E-12 +j 7.276E-12

ELEMENT = "Line.L34"
744           1           8.8631 /_    0.4 =     8.8629 +j  0.068311
744           2           8.8557 /_ -179.6 =    -8.8554 +j -0.064978
744           3        0.0081434 /_ -155.8 =   -0.00743 +j -0.0033332
744       Resid        2.7817E-6 /_  164.8 =   -2.6839E-6 +j 7.3114E-7
------------
729           1           8.8625 /_ -179.6 =    -8.8623 +j -0.060452
729           2           8.8625 /_    0.4 =     8.8623 +j  0.060452
729           3       4.5475E-12 /_   53.1 =  2.7285E-12 +j 3.638E-12
729       Resid       1.0412E-11 /_  -31.6 =   8.8676E-12 +j -5.457E-12

ELEMENT = "Line.L35"
799R          1           326.86 /_  -36.9 =     261.42 +j    -196.2
799R          2           253.93 /_ -151.3 =    -222.83 +j   -121.75
799R          3           320.29 /_   96.9 =    -38.592 +j    317.96
799R      Resid       0.00022663 /_  146.5 =   -0.00018892 +j 0.00012518
------------
701           1           326.94 /_  143.1 =    -261.41 +j    196.34
701           2           253.99 /_   28.6 =     222.95 +j    121.67
701           3           320.34 /_  -83.1 =      38.46 +j   -318.02
701       Resid       0.00012812 /_  -19.9 =   0.00012047 +j -0.000043618

ELEMENT = "Transformer.REG1A"
799           1           326.86 /_  -36.9 =     261.42 +j    -196.2
799           2           326.86 /_  143.1 =    -261.42 +j     196.2
------------
799R          1           326.86 /_  143.1 =    -261.42 +j     196.2
799R          2           326.86 /_  -36.9 =     261.42 +j    -196.2

ELEMENT = "Transformer.REG1C"
799           3           320.29 /_   96.9 =    -38.592 +j    317.96
799           2           320.29 /_  -83.1 =     38.592 +j   -317.96
------------
799R          3           320.29 /_  -83.1 =     38.592 +j   -317.96
799R          2           320.29 /_   96.9 =    -38.592 +j    317.96

ELEMENT = "Line.JUMPER"
799           2        0.0001124 /_  -33.9 =  0.000093236 +j -0.00006277
------------
799R          2        0.0001124 /_  146.1 =  -0.000093236 +j 0.00006277

= = = = = = = = = = = = = = = = = = =  = = = = = = = = = = =  = =

Power Conversion Elements

  Bus     Phase    Magnitude, A     Angle      (Real)   +j  (Imag)

ELEMENT = "Load.S701A"
701           1           30.007 /_    0.5 =     30.007 +j   0.24214
701           2           30.007 /_ -179.5 =    -30.007 +j  -0.24214

ELEMENT = "Load.S701B"
701           2           30.822 /_ -121.1 =    -15.902 +j   -26.403
701           3           30.822 /_   58.9 =     15.902 +j    26.403

ELEMENT = "Load.S701C"
701           3           74.303 /_  118.3 =    -35.262 +j    65.403
701           1           74.303 /_  -61.7 =     35.262 +j   -65.403

ELEMENT = "Load.S712C"
712           3            17.66 /_  119.5 =    -8.7082 +j    15.363
712           1            17.66 /_  -60.5 =     8.7082 +j   -15.363

ELEMENT = "Load.S713C"
713           3           17.661 /_  119.5 =    -8.7028 +j    15.368
713           1           17.661 /_  -60.5 =     8.7028 +j   -15.368

ELEMENT = "Load.S714A"
714           1           3.5659 /_    1.7 =     3.5643 +j   0.10776
714           2           3.5659 /_ -178.3 =    -3.5643 +j  -0.10776

ELEMENT = "Load.S714B"
714           2           4.5343 /_ -120.2 =    -2.2786 +j   -3.9202
714           3           4.5343 /_   59.8 =     2.2786 +j    3.9202

ELEMENT = "Load.S718A"
718           1           17.806 /_    1.7 =     17.798 +j   0.54142
718           2           17.806 /_ -178.3 =    -17.798 +j  -0.54142

ELEMENT = "Load.S720C"
720           3           17.585 /_  119.6 =    -8.6893 +j    15.289
720           1           17.585 /_  -60.4 =     8.6893 +j   -15.289

ELEMENT = "Load.S722B"
722           2           30.243 /_ -121.3 =    -15.704 +j   -25.846
722           3           30.243 /_   58.7 =     15.704 +j    25.846

ELEMENT = "Load.S722C"
722           3            4.346 /_  119.5 =    -2.1407 +j    3.7822
722           1            4.346 /_  -60.5 =     2.1407 +j   -3.7822

ELEMENT = "Load.S724B"
724           2            9.069 /_ -121.3 =    -4.7084 +j    -7.751
724           3            9.069 /_   58.7 =     4.7084 +j     7.751

ELEMENT = "Load.S725B"
725           2           9.1176 /_ -121.3 =    -4.7392 +j   -7.7892
725           3           9.1176 /_   58.7 =     4.7392 +j    7.7892

ELEMENT = "Load.S727C"
727           3            8.779 /_  117.9 =    -4.1088 +j    7.7581
727           1            8.779 /_  -62.1 =     4.1088 +j   -7.7581

ELEMENT = "Load.S728"
728           1           15.076 /_  -30.7 =     12.966 +j   -7.6922
728           2           15.732 /_ -150.0 =     -13.62 +j   -7.8739
728           3            15.58 /_   87.6 =    0.65364 +j    15.566

ELEMENT = "Load.S729A"
729           1           8.8625 /_    0.4 =     8.8623 +j  0.060452
729           2           8.8625 /_ -179.6 =    -8.8623 +j -0.060452

ELEMENT = "Load.S730C"
730           3            17.49 /_  119.2 =    -8.5289 +j    15.269
730           1            17.49 /_  -60.8 =     8.5289 +j   -15.269

ELEMENT = "Load.S731B"
731           2           18.241 /_ -120.0 =    -9.1286 +j   -15.793
731           3           18.241 /_   60.0 =     9.1286 +j    15.793

ELEMENT = "Load.S732C"
732           3           8.7078 /_  117.7 =    -4.0529 +j    7.7071
732           1           8.7078 /_  -62.3 =     4.0529 +j   -7.7071

ELEMENT = "Load.S733A"
733           1            17.57 /_    1.9 =     17.561 +j   0.56889
733           2            17.57 /_ -178.1 =    -17.561 +j  -0.56889

ELEMENT = "Load.S734C"
734           3           8.6677 /_  117.6 =    -4.0158 +j    7.6813
734           1           8.6677 /_  -62.4 =     4.0158 +j   -7.6813

ELEMENT = "Load.S735C"
735           3           17.305 /_  119.0 =    -8.3882 +j    15.136
735           1           17.305 /_  -61.0 =     8.3882 +j   -15.136

ELEMENT = "Load.S736B"
736           2           9.0705 /_ -121.4 =     -4.726 +j    -7.742
736           3           9.0705 /_   58.6 =      4.726 +j     7.742

ELEMENT = "Load.S737A"
737           1           29.083 /_    0.6 =     29.082 +j   0.28675
737           2           29.083 /_ -179.4 =    -29.082 +j  -0.28675

ELEMENT = "Load.S738A"
738           1           26.064 /_    0.9 =      26.06 +j   0.43187
738           2           26.064 /_ -179.1 =     -26.06 +j  -0.43187

ELEMENT = "Load.S740C"
740           3           17.262 /_  118.8 =    -8.3268 +j    15.121
740           1           17.262 /_  -61.2 =     8.3268 +j   -15.121

ELEMENT = "Load.S741C"
741           3           8.6306 /_  117.5 =    -3.9814 +j    7.6574
741           1           8.6306 /_  -62.5 =     3.9814 +j   -7.6574

ELEMENT = "Load.S742A"
742           1           1.7016 /_    0.4 =     1.7015 +j  0.011713
742           2           1.7016 /_ -179.6 =    -1.7015 +j -0.011713

ELEMENT = "Load.S742B"
742           2           18.356 /_ -119.9 =    -9.1466 +j   -15.915
742           3           18.356 /_   60.1 =     9.1466 +j    15.915

ELEMENT = "Load.S744A"
744           1           8.8656 /_    0.4 =     8.8654 +j  0.059949
744           2           8.8656 /_ -179.6 =    -8.8654 +j -0.059949

