
CIRCUIT ELEMENT POWER FLOW

(Power Flow into element from indicated Bus)

Power Delivery Elements

  Bus     Phase     kW     +j   kvar         kVA         PF

ELEMENT = "Vsource.SOURCE"
SOURCEBUS     1      -724.5 +j   -543.7      905.8       0.7998
SOURCEBUS     2      -601.0 +j   -366.1      703.7       0.8540
SOURCEBUS     3      -816.6 +j   -347.9      887.6       0.9200
   TERMINAL TOTAL . -2142.0 +j  -1257.7     2484.0       0.8623
SOURCEBUS     0         0.0 +j      0.0        0.0       1.0000
SOURCEBUS     0        -0.0 +j      0.0        0.0       1.0000
SOURCEBUS     0         0.0 +j     -0.0        0.0       1.0000
   TERMINAL TOTAL .     0.0 +j      0.0        0.0       1.0000

ELEMENT = "Transformer.SUBXF"
SOURCEBUS     1       724.5 +j    543.7      905.8       0.7998
SOURCEBUS     2       601.0 +j    366.1      703.7       0.8540
SOURCEBUS     3       816.6 +j    347.9      887.6       0.9200
SOURCEBUS     0         0.0 +j      0.0        0.0       1.0000
   TERMINAL TOTAL .  2142.0 +j   1257.7     2484.0       0.8623
799           1      -702.3 +j   -467.2      843.5       0.8326
799           2      -588.3 +j   -316.1      667.8       0.8809
799           3      -800.9 +j   -272.5      846.0       0.9467
799           0         0.0 +j      0.0        0.0       1.0000
   TERMINAL TOTAL . -2091.5 +j  -1055.8     2342.9       0.8927

ELEMENT = "Transformer.XFM1"
709           1         0.0 +j      0.0        0.0       0.0000
709           2        -0.0 +j      0.0        0.0      -0.0000
709           3        -0.0 +j      0.0        0.0      -0.0000
709           0         0.0 +j      0.0        0.0       1.0000
   TERMINAL TOTAL .     0.0 +j      0.0        0.0       0.0000
775           1         0.0 +j      0.0        0.0       0.6132
775           2        -0.0 +j     -0.0        0.0       0.8655
775           3         0.0 +j     -0.0        0.0      -0.7728
775           0         0.0 +j      0.0        0.0       1.0000
   TERMINAL TOTAL .     0.0 +j     -0.0        0.0      -0.9481

ELEMENT = "Line.L1"
701           1       513.5 +j    295.2      592.3       0.8670
701           2       460.1 +j    249.5      523.4       0.8791
701           3       551.2 +j    198.4      585.8       0.9409
   TERMINAL TOTAL .  1524.8 +j    743.1     1696.2       0.8989
702           1      -509.9 +j   -292.1      587.6       0.8677
702           2      -458.0 +j   -247.5      520.6       0.8798
702           3      -548.2 +j   -195.0      581.9       0.9422
   TERMINAL TOTAL . -1516.1 +j   -734.5     1684.7       0.8999

ELEMENT = "Line.L2"
702           1        28.5 +j     36.3       46.1       0.6180
702           2        49.9 +j      0.7       49.9       0.9999
702           3        72.5 +j     34.1       80.1       0.9052
   TERMINAL TOTAL .   151.0 +j     71.0      166.8       0.9050
705           1       -28.5 +j    -36.3       46.1       0.6173
705           2       -49.9 +j     -0.7       49.9       0.9999
705           3       -72.4 +j    -34.0       80.0       0.9050
   TERMINAL TOTAL .  -150.8 +j    -71.0      166.6       0.9047

ELEMENT = "Line.L3"
702           1       107.4 +j     76.5      131.9       0.8146
702           2       169.0 +j     39.5      173.5       0.9737
702           3       177.8 +j    102.4      205.2       0.8665
   TERMINAL TOTAL .   454.2 +j    218.4      504.0       0.9012
713           1      -107.2 +j    -76.4      131.7       0.8144
713           2      -168.7 +j    -39.4      173.3       0.9737
713           3      -177.4 +j   -102.2      204.8       0.8665
   TERMINAL TOTAL .  -453.4 +j   -218.1      503.1       0.9012

ELEMENT = "Line.L4"
702           1       373.9 +j    179.4      414.7       0.9016
702           2       239.1 +j    207.3      316.5       0.7557
702           3       297.9 +j     58.5      303.6       0.9813
   TERMINAL TOTAL .   911.0 +j    445.1     1013.9       0.8985
703           1      -371.5 +j   -177.3      411.7       0.9025
703           2      -238.1 +j   -206.4      315.1       0.7557
703           3      -296.8 +j    -57.3      302.3       0.9819
   TERMINAL TOTAL .  -906.4 +j   -441.0     1008.0       0.8992

ELEMENT = "Line.L5"
703           1        88.5 +j     31.5       93.9       0.9420
703           2        61.7 +j     56.0       83.3       0.7406
703           3        57.9 +j     16.2       60.1       0.9628
   TERMINAL TOTAL .   208.1 +j    103.8      232.6       0.8949
727           1       -88.4 +j    -31.5       93.8       0.9419
727           2       -61.7 +j    -56.0       83.3       0.7402
727           3       -57.9 +j    -16.2       60.1       0.9628
   TERMINAL TOTAL .  -207.9 +j   -103.8      232.4       0.8947

ELEMENT = "Line.L6"
703           1       283.0 +j    145.8      318.4       0.8890
703           2       176.4 +j    150.3      231.7       0.7610
703           3       238.9 +j     41.1      242.4       0.9855
   TERMINAL TOTAL .   698.3 +j    337.2      775.4       0.9005
730           1      -281.4 +j   -144.9      316.6       0.8890
730           2      -175.6 +j   -150.0      231.0       0.7603
730           3      -238.1 +j    -40.6      241.5       0.9858
   TERMINAL TOTAL .  -695.1 +j   -335.5      771.9       0.9006

ELEMENT = "Line.L7"
704           1        52.8 +j     -5.3       53.1      -0.9950
704           2        43.5 +j     44.3       62.1       0.7001
704           3         6.7 +j      9.4       11.5       0.5816
   TERMINAL TOTAL .   103.0 +j     48.4      113.8       0.9050
714           1       -52.8 +j      5.3       53.0      -0.9950
714           2       -43.5 +j    -44.3       62.1       0.7000
714           3        -6.7 +j     -9.4       11.5       0.5813
   TERMINAL TOTAL .  -103.0 +j    -48.4      113.8       0.9049

ELEMENT = "Line.L8"
704           1        30.1 +j     45.1       54.2       0.5550
704           2       124.9 +j     -5.0      125.0      -0.9992
704           3       125.4 +j     96.7      158.4       0.7918
   TERMINAL TOTAL .   280.4 +j    136.8      312.0       0.8987
720           1       -30.0 +j    -45.1       54.2       0.5539
720           2      -124.6 +j      5.1      124.7      -0.9992
720           3      -124.9 +j    -96.5      157.9       0.7913
   TERMINAL TOTAL .  -279.6 +j   -136.5      311.1       0.8985

ELEMENT = "Line.L9"
705           1         4.2 +j     -0.3        4.2      -0.9967
705           2        49.9 +j      0.7       49.9       0.9999
705           3        27.4 +j     38.1       47.0       0.5840
   TERMINAL TOTAL .    81.5 +j     38.5       90.1       0.9043
742           1        -4.2 +j      0.3        4.2      -0.9971
742           2       -49.8 +j     -0.7       49.8       0.9999
742           3       -27.4 +j    -38.1       46.9       0.5834
   TERMINAL TOTAL .   -81.4 +j    -38.5       90.1       0.9040

ELEMENT = "Line.L10"
705           1        24.2 +j     36.6       43.9       0.5520
705           2         0.0 +j     -0.0        0.0      -0.0000
705           3        45.0 +j     -4.1       45.2      -0.9959
   TERMINAL TOTAL .    69.3 +j     32.5       76.5       0.9051
712           1       -24.2 +j    -36.6       43.9       0.5515
712           2        -0.0 +j      0.0        0.0      -0.9433
712           3       -45.0 +j      4.1       45.2      -0.9959
   TERMINAL TOTAL .   -69.2 +j    -32.6       76.5       0.9048

ELEMENT = "Line.L11"
706           1        -0.0 +j     -0.0        0.0       0.0000
706           2        23.5 +j     -0.9       23.5      -0.9992
706           3        13.0 +j     19.1       23.2       0.5632
   TERMINAL TOTAL .    36.5 +j     18.2       40.8       0.8951
725           1         0.0 +j      0.0        0.0       0.9162
725           2       -23.4 +j      0.9       23.5      -0.9992
725           3       -13.0 +j    -19.2       23.2       0.5627
   TERMINAL TOTAL .   -36.5 +j    -18.2       40.8       0.8944

ELEMENT = "Line.L12"
707           1        -0.0 +j     -0.1        0.1       0.0000
707           2        23.2 +j     -1.0       23.3      -0.9991
707           3        12.9 +j     19.0       22.9       0.5626
   TERMINAL TOTAL .    36.1 +j     17.9       40.3       0.8961
724           1         0.0 +j      0.0        0.0       0.3079
724           2       -23.2 +j      1.0       23.2      -0.9992
724           3       -12.9 +j    -19.0       23.0       0.5610
   TERMINAL TOTAL .   -36.1 +j    -18.0       40.4       0.8944

ELEMENT = "Line.L13"
707           1         5.9 +j      9.0       10.8       0.5510
707           2        77.5 +j     -3.2       77.5      -0.9992
707           3        54.0 +j     62.4       82.5       0.6539
   TERMINAL TOTAL .   137.4 +j     68.2      153.4       0.8956
722           1        -5.9 +j     -9.0       10.8       0.5506
722           2       -77.4 +j      3.2       77.5      -0.9992
722           3       -53.9 +j    -62.4       82.5       0.6537
   TERMINAL TOTAL .  -137.3 +j    -68.3      153.3       0.8955

ELEMENT = "Line.L14"
708           1       245.5 +j     90.5      261.6       0.9383
708           2       128.3 +j    152.6      199.4       0.6436
708           3       144.2 +j      8.3      144.4       0.9983
   TERMINAL TOTAL .   518.0 +j    251.4      575.8       0.8997
733           1      -244.9 +j    -90.2      261.0       0.9384
733           2      -128.0 +j   -152.5      199.1       0.6431
733           3      -144.1 +j     -8.2      144.3       0.9984
   TERMINAL TOTAL .  -517.0 +j   -250.8      574.6       0.8997

ELEMENT = "Line.L15"
708           1        11.3 +j     18.1       21.3       0.5288
708           2         0.0 +j     -0.0        0.0      -0.0000
708           3        22.0 +j     -1.5       22.1      -0.9978
   TERMINAL TOTAL .    33.3 +j     16.6       37.2       0.8952
732           1       -11.2 +j    -18.1       21.3       0.5281
732           2        -0.0 +j      0.0        0.0      -0.8355
732           3       -22.0 +j      1.4       22.1      -0.9979
   TERMINAL TOTAL .   -33.3 +j    -16.6       37.2       0.8944

ELEMENT = "Line.L16"
709           1        -0.0 +j     -0.1        0.1       0.0000
709           2        46.7 +j     -2.8       46.8      -0.9982
709           3        27.2 +j     37.5       46.3       0.5873
   TERMINAL TOTAL .    73.9 +j     34.6       81.6       0.9056
731           1         0.0 +j      0.0        0.0       0.9528
731           2       -46.7 +j      2.7       46.8      -0.9983
731           3       -27.1 +j    -37.5       46.3       0.5865
   TERMINAL TOTAL .   -73.8 +j    -34.7       81.6       0.9048

ELEMENT = "Line.L17"
709           1       257.4 +j    108.9      279.5       0.9210
709           2       128.6 +j    152.7      199.7       0.6443
709           3       166.4 +j      7.0      166.6       0.9991
   TERMINAL TOTAL .   552.5 +j    268.5      614.3       0.8994
708           1      -256.8 +j   -108.5      278.7       0.9211
708           2      -128.3 +j   -152.6      199.4       0.6437
708           3      -166.2 +j     -6.8      166.4       0.9992
   TERMINAL TOTAL .  -551.3 +j   -267.9      613.0       0.8994

ELEMENT = "Line.L18"
710           1        23.0 +j     35.2       42.0       0.5469
710           2         0.0 +j     -0.0        0.0      -0.0000
710           3        43.5 +j     -3.9       43.7      -0.9960
   TERMINAL TOTAL .    66.5 +j     31.2       73.5       0.9051
735           1       -23.0 +j    -35.2       42.0       0.5465
735           2         0.0 +j     -0.0        0.0      -0.8003
735           3       -43.5 +j      3.9       43.7      -0.9960
   TERMINAL TOTAL .   -66.5 +j    -31.3       73.4       0.9048

ELEMENT = "Line.L19"
710           1        -0.0 +j     -0.1        0.1       0.0000
710           2        23.1 +j     -0.8       23.1      -0.9993
710           3        13.0 +j     18.7       22.8       0.5715
   TERMINAL TOTAL .    36.2 +j     17.8       40.3       0.8972
736           1        -0.0 +j     -0.0        0.0       0.9961
736           2       -23.1 +j      0.8       23.1      -0.9995
736           3       -13.0 +j    -18.8       22.9       0.5688
   TERMINAL TOTAL .   -36.1 +j    -18.1       40.4       0.8944

ELEMENT = "Line.L20"
711           1        11.0 +j     17.7       20.8       0.5262
711           2         0.0 +j     -0.0        0.0      -0.0000
711           3        21.7 +j     -1.4       21.8      -0.9978
   TERMINAL TOTAL .    32.7 +j     16.2       36.5       0.8956
741           1       -11.0 +j    -17.7       20.9       0.5254
741           2        -0.0 +j      0.0        0.0      -0.1473
741           3       -21.7 +j      1.4       21.8      -0.9979
   TERMINAL TOTAL .   -32.7 +j    -16.3       36.5       0.8944

ELEMENT = "Line.L21"
711           1        22.8 +j     35.0       41.7       0.5458
711           2         0.0 +j     -0.0        0.0      -0.0000
711           3        43.4 +j     -3.9       43.6      -0.9961
   TERMINAL TOTAL .    66.2 +j     31.1       73.1       0.9051
740           1       -22.8 +j    -35.0       41.7       0.5455
740           2         0.0 +j     -0.0        0.0      -0.2206
740           3       -43.4 +j      3.8       43.5      -0.9961
   TERMINAL TOTAL .   -66.1 +j    -31.1       73.1       0.9048

ELEMENT = "Line.L22"
713           1        83.0 +j     39.8       92.1       0.9017
713           2       168.7 +j     39.4      173.3       0.9737
713           3       132.4 +j    106.3      169.8       0.7800
   TERMINAL TOTAL .   384.2 +j    185.5      426.6       0.9005
704           1       -82.9 +j    -39.8       91.9       0.9015
704           2      -168.4 +j    -39.3      172.9       0.9738
704           3      -132.1 +j   -106.1      169.5       0.7796
   TERMINAL TOTAL .  -383.4 +j   -185.2      425.8       0.9004

ELEMENT = "Line.L23"
714           1        44.0 +j     -4.4       44.2      -0.9950
714           2        26.5 +j     37.5       45.9       0.5769
714           3         0.0 +j     -0.0        0.0      -0.0000
   TERMINAL TOTAL .    70.5 +j     33.0       77.8       0.9055
718           1       -43.9 +j      4.4       44.1      -0.9950
718           2       -26.4 +j    -37.5       45.9       0.5759
718           3         0.0 +j      0.0        0.0       1.0000
   TERMINAL TOTAL .   -70.4 +j    -33.1       77.8       0.9048

ELEMENT = "Line.L24"
720           1         5.9 +j      8.9       10.7       0.5564
720           2       101.1 +j     -4.1      101.2      -0.9992
720           3        67.3 +j     81.5      105.7       0.6371
   TERMINAL TOTAL .   174.4 +j     86.2      194.6       0.8965
707           1        -5.9 +j     -8.9       10.7       0.5533
707           2      -100.7 +j      4.2      100.8      -0.9991
707           3       -66.9 +j    -81.4      105.3       0.6348
   TERMINAL TOTAL .  -173.5 +j    -86.1      193.7       0.8957

ELEMENT = "Line.L25"
720           1        -0.0 +j     -0.1        0.1       0.0000
720           2        23.5 +j     -1.0       23.5      -0.9991
720           3        13.1 +j     19.1       23.1       0.5645
   TERMINAL TOTAL .    36.5 +j     18.0       40.7       0.8966
706           1         0.0 +j      0.0        0.0       0.0000
706           2       -23.5 +j      0.9       23.5      -0.9992
706           3       -13.0 +j    -19.1       23.2       0.5632
   TERMINAL TOTAL .   -36.5 +j    -18.2       40.8       0.8951

ELEMENT = "Line.L26"
727           1        76.9 +j     13.2       78.0       0.9857
727           2        61.7 +j     56.0       83.3       0.7402
727           3        35.5 +j     17.7       39.7       0.8950
   TERMINAL TOTAL .   174.1 +j     86.9      194.5       0.8948
744           1       -76.9 +j    -13.2       78.0       0.9857
744           2       -61.6 +j    -56.0       83.3       0.7400
744           3       -35.5 +j    -17.7       39.7       0.8948
   TERMINAL TOTAL .  -174.0 +j    -86.9      194.5       0.8947

ELEMENT = "Line.L27"
730           1       257.8 +j    109.0      279.9       0.9210
730           2       175.6 +j    150.0      231.0       0.7603
730           3       193.8 +j     44.5      198.8       0.9746
   TERMINAL TOTAL .   627.2 +j    303.6      696.8       0.9001
709           1      -257.4 +j   -108.8      279.5       0.9211
709           2      -175.4 +j   -149.9      230.7       0.7601
709           3      -193.6 +j    -44.4      198.7       0.9747
   TERMINAL TOTAL .  -626.4 +j   -303.1      695.9       0.9001

ELEMENT = "Line.L28"
733           1       202.3 +j     94.7      223.3       0.9057
733           2       102.2 +j    115.7      154.4       0.6618
733           3       144.1 +j      8.2      144.3       0.9984
   TERMINAL TOTAL .   448.5 +j    218.6      498.9       0.8989
734           1      -201.5 +j    -94.3      222.5       0.9058
734           2      -101.8 +j   -115.6      154.1       0.6610
734           3      -143.8 +j     -8.1      144.0       0.9984
   TERMINAL TOTAL .  -447.2 +j   -218.0      497.5       0.8989

ELEMENT = "Line.L29"
734           1       167.4 +j     41.3      172.4       0.9709
734           2        78.7 +j    116.5      140.6       0.5598
734           3        65.3 +j     -5.3       65.5      -0.9967
   TERMINAL TOTAL .   311.4 +j    152.5      346.7       0.8981
737           1      -166.9 +j    -41.1      171.9       0.9710
737           2       -78.4 +j   -116.4      140.4       0.5586
737           3       -65.2 +j      5.3       65.4      -0.9967
   TERMINAL TOTAL .  -310.5 +j   -152.2      345.8       0.8980

ELEMENT = "Line.L30"
734           1        23.0 +j     35.1       41.9       0.5489
734           2        23.1 +j     -0.9       23.2      -0.9993
734           3        56.6 +j     14.8       58.6       0.9675
   TERMINAL TOTAL .   102.8 +j     49.0      113.9       0.9028
710           1       -23.0 +j    -35.1       41.9       0.5479
710           2       -23.1 +j      0.9       23.1      -0.9993
710           3       -56.6 +j    -14.8       58.5       0.9673
   TERMINAL TOTAL .  -102.7 +j    -49.0      113.8       0.9023

ELEMENT = "Line.L31"
737           1        96.7 +j     47.0      107.5       0.8994
737           2        37.3 +j     54.8       66.3       0.5620
737           3        65.2 +j     -5.3       65.4      -0.9967
   TERMINAL TOTAL .   199.2 +j     96.5      221.3       0.8999
738           1       -96.6 +j    -47.0      107.4       0.8993
738           2       -37.2 +j    -54.8       66.3       0.5615
738           3       -65.2 +j      5.3       65.4      -0.9967
   TERMINAL TOTAL .  -199.0 +j    -96.5      221.1       0.8998

ELEMENT = "Line.L32"
738           1        33.8 +j     52.7       62.6       0.5399
738           2         0.0 +j     -0.1        0.1      -0.0000
738           3        65.2 +j     -5.3       65.4      -0.9967
   TERMINAL TOTAL .    98.9 +j     47.3      109.7       0.9023
711           1       -33.7 +j    -52.7       62.6       0.5393
711           2        -0.0 +j      0.1        0.1      -0.0000
711           3       -65.1 +j      5.3       65.3      -0.9967
   TERMINAL TOTAL .   -98.9 +j    -47.3      109.6       0.9020

ELEMENT = "Line.L33"
744           1        33.3 +j     16.6       37.2       0.8947
744           2        36.2 +j     18.1       40.5       0.8946
744           3        35.5 +j     17.7       39.7       0.8946
   TERMINAL TOTAL .   105.0 +j     52.5      117.4       0.8946
728           1       -33.3 +j    -16.6       37.2       0.8945
728           2       -36.2 +j    -18.1       40.5       0.8944
728           3       -35.5 +j    -17.8       39.7       0.8944
   TERMINAL TOTAL .  -105.0 +j    -52.5      117.4       0.8944

ELEMENT = "Line.L34"
744           1        21.8 +j     -1.7       21.9      -0.9968
744           2        12.7 +j     18.9       22.8       0.5566
744           3         0.0 +j     -0.0        0.0      -0.0000
   TERMINAL TOTAL .    34.5 +j     17.2       38.5       0.8951
729           1       -21.8 +j      1.7       21.9      -0.9969
729           2       -12.7 +j    -19.0       22.8       0.5561
729           3         0.0 +j      0.0        0.0       0.4843
   TERMINAL TOTAL .   -34.5 +j    -17.2       38.5       0.8944

ELEMENT = "Line.L35"
799R          1       697.4 +j    454.9      832.7       0.8376
799R          2       588.3 +j    316.1      667.8       0.8809
799R          3       796.2 +j    260.7      837.8       0.9504
   TERMINAL TOTAL .  2081.9 +j   1031.7     2323.5       0.8960
701           1      -688.0 +j   -447.3      820.6       0.8384
701           2      -583.8 +j   -311.3      661.7       0.8824
701           3      -787.4 +j   -251.6      826.6       0.9525
   TERMINAL TOTAL . -2059.2 +j  -1010.2     2293.6       0.8978

ELEMENT = "Transformer.REG1A"
799           1       702.3 +j    467.2      843.5       0.8326
799           2       -56.8 +j    857.8      859.6      -0.0661
   TERMINAL TOTAL .   645.5 +j   1325.0     1473.8       0.4380
799R          1      -697.4 +j   -454.9      832.7       0.8376
799R          2        56.8 +j   -857.8      859.6      -0.0661
   TERMINAL TOTAL .  -640.6 +j  -1312.7     1460.6       0.4386

ELEMENT = "Transformer.REG1C"
799           3       800.9 +j    272.5      846.0       0.9467
799           2       645.1 +j   -541.7      842.4      -0.7658
   TERMINAL TOTAL .  1446.0 +j   -269.2     1470.9      -0.9831
799R          3      -796.2 +j   -260.7      837.8       0.9504
799R          2      -645.1 +j    541.7      842.4      -0.7658
   TERMINAL TOTAL . -1441.3 +j    281.0     1468.4      -0.9815

ELEMENT = "Line.JUMPER"
799           2         0.0 +j     -0.0        0.0      -0.0149
   TERMINAL TOTAL .     0.0 +j     -0.0        0.0      -0.0149
799R          2        -0.0 +j      0.0        0.0      -0.0149
   TERMINAL TOTAL .    -0.0 +j      0.0        0.0      -0.0149

= = = = = = = = = = = = = = = = = = =  = = = = = = = = = = =  = =

Power Conversion Elements

  Bus     Phase     kW   +j  kvar         kVA         PF

ELEMENT = "Load.S701A"
701           1      75.1 +j   -5.7       75.3      -0.9971
701           2      43.4 +j   65.0       78.2       0.5558
  TERMINAL TOTAL  .   118.6 +j     59.3      132.5       0.8944

ELEMENT = "Load.S701B"
701           2      80.2 +j   -3.1       80.3      -0.9992
701           3      44.8 +j   65.7       79.5       0.5638
  TERMINAL TOTAL  .   125.1 +j     62.5      139.8       0.8944

ELEMENT = "Load.S701C"
701           3     191.3 +j  -12.4      191.7      -0.9979
701           1      99.4 +j  157.8      186.5       0.5331
  TERMINAL TOTAL  .   290.7 +j    145.4      325.1       0.8944

ELEMENT = "Load.S712C"
712           3      45.0 +j   -4.1       45.2      -0.9959
712           1      24.2 +j   36.6       43.9       0.5515
  TERMINAL TOTAL  .    69.2 +j     32.6       76.5       0.9048

ELEMENT = "Load.S713C"
713           3      45.0 +j   -4.0       45.2      -0.9960
713           1      24.2 +j   36.6       43.9       0.5518
  TERMINAL TOTAL  .    69.2 +j     32.6       76.5       0.9048

ELEMENT = "Load.S714A"
714           1       8.8 +j   -0.9        8.9      -0.9951
714           2       5.3 +j    7.5        9.2       0.5763
  TERMINAL TOTAL  .    14.1 +j      6.6       15.6       0.9048

ELEMENT = "Load.S714B"
714           2      11.7 +j   -0.7       11.7      -0.9984
714           3       6.7 +j    9.4       11.6       0.5797
  TERMINAL TOTAL  .    18.4 +j      8.8       20.4       0.9029

ELEMENT = "Load.S718A"
718           1      43.9 +j   -4.4       44.1      -0.9950
718           2      26.4 +j   37.5       45.9       0.5759
  TERMINAL TOTAL  .    70.4 +j     33.1       77.8       0.9048

ELEMENT = "Load.S720C"
720           3      44.5 +j   -4.0       44.7      -0.9959
720           1      24.1 +j   36.3       43.6       0.5525
  TERMINAL TOTAL  .    68.6 +j     32.3       75.8       0.9048

ELEMENT = "Load.S722B"
722           2      77.4 +j   -3.2       77.5      -0.9992
722           3      43.0 +j   63.4       76.6       0.5612
  TERMINAL TOTAL  .   120.4 +j     60.2      134.6       0.8944

ELEMENT = "Load.S722C"
722           3      11.0 +j   -0.9       11.0      -0.9963
722           1       5.9 +j    9.0       10.8       0.5506
  TERMINAL TOTAL  .    16.9 +j      8.0       18.7       0.9029

ELEMENT = "Load.S724B"
724           2      23.2 +j   -1.0       23.2      -0.9992
724           3      12.9 +j   19.0       23.0       0.5610
  TERMINAL TOTAL  .    36.1 +j     18.0       40.4       0.8944

ELEMENT = "Load.S725B"
725           2      23.4 +j   -0.9       23.5      -0.9992
725           3      13.0 +j   19.2       23.2       0.5627
  TERMINAL TOTAL  .    36.5 +j     18.2       40.8       0.8944

ELEMENT = "Load.S727C"
727           3      22.3 +j   -1.5       22.4      -0.9979
727           1      11.5 +j   18.4       21.7       0.5302
  TERMINAL TOTAL  .    33.8 +j     16.9       37.8       0.8944

ELEMENT = "Load.S728"
728           1      33.3 +j   16.6       37.2       0.8945
728           2      36.2 +j   18.1       40.5       0.8944
728           3      35.5 +j   17.8       39.7       0.8944
  TERMINAL TOTAL  .   105.0 +j     52.5      117.4       0.8944

ELEMENT = "Load.S729A"
729           1      21.8 +j   -1.7       21.9      -0.9969
729           2      12.7 +j   19.0       22.8       0.5561
  TERMINAL TOTAL  .    34.5 +j     17.2       38.5       0.8944

ELEMENT = "Load.S730C"
730           3      44.3 +j   -4.0       44.5      -0.9960
730           1      23.6 +j   35.9       43.0       0.5492
  TERMINAL TOTAL  .    67.9 +j     31.9       75.0       0.9048

ELEMENT = "Load.S731B"
731           2      46.7 +j   -2.7       46.8      -0.9983
731           3      27.1 +j   37.5       46.3       0.5865
  TERMINAL TOTAL  .    73.8 +j     34.7       81.6       0.9048

ELEMENT = "Load.S732C"
732           3      22.0 +j   -1.4       22.1      -0.9979
732           1      11.2 +j   18.1       21.3       0.5281
  TERMINAL TOTAL  .    33.3 +j     16.6       37.2       0.8944

ELEMENT = "Load.S733A"
733           1      42.6 +j   -4.5       42.9      -0.9945
733           2      25.9 +j   36.7       44.9       0.5758
  TERMINAL TOTAL  .    68.5 +j     32.2       75.7       0.9048

ELEMENT = "Load.S734C"
734           3      21.9 +j   -1.4       21.9      -0.9979
734           1      11.1 +j   17.9       21.1       0.5269
  TERMINAL TOTAL  .    33.0 +j     16.5       36.9       0.8944

ELEMENT = "Load.S735C"
735           3      43.5 +j   -3.9       43.7      -0.9960
735           1      23.0 +j   35.2       42.0       0.5465
  TERMINAL TOTAL  .    66.5 +j     31.3       73.4       0.9048

ELEMENT = "Load.S736B"
736           2      23.1 +j   -0.8       23.1      -0.9995
736           3      13.0 +j   18.8       22.9       0.5688
  TERMINAL TOTAL  .    36.1 +j     18.1       40.4       0.8944

ELEMENT = "Load.S737A"
737           1      70.2 +j   -5.9       70.5      -0.9965
737           2      41.2 +j   61.6       74.1       0.5556
  TERMINAL TOTAL  .   111.4 +j     55.7      124.5       0.8944

ELEMENT = "Load.S738A"
738           1      62.8 +j   -5.7       63.1      -0.9959
738           2      37.2 +j   54.9       66.3       0.5609
  TERMINAL TOTAL  .   100.0 +j     49.2      111.5       0.8973

ELEMENT = "Load.S740C"
740           3      43.4 +j   -3.8       43.5      -0.9961
740           1      22.8 +j   35.0       41.7       0.5455
  TERMINAL TOTAL  .    66.1 +j     31.1       73.1       0.9048

ELEMENT = "Load.S741C"
741           3      21.7 +j   -1.4       21.8      -0.9979
741           1      11.0 +j   17.7       20.9       0.5254
  TERMINAL TOTAL  .    32.7 +j     16.3       36.5       0.8944

ELEMENT = "Load.S742A"
742           1       4.2 +j   -0.3        4.2      -0.9971
742           2       2.5 +j    3.7        4.4       0.5567
  TERMINAL TOTAL  .     6.7 +j      3.3        7.5       0.8944

ELEMENT = "Load.S742B"
742           2      47.4 +j   -2.9       47.5      -0.9981
742           3      27.4 +j   38.1       46.9       0.5834
  TERMINAL TOTAL  .    74.8 +j     35.2       82.6       0.9048

ELEMENT = "Load.S744A"
744           1      21.8 +j   -1.7       21.9      -0.9969
744           2      12.7 +j   19.0       22.8       0.5562
  TERMINAL TOTAL  .    34.5 +j     17.2       38.6       0.8944


Total Circuit Losses =  109.4 +j  263.9
